[
  {
    "_id": "3d713995b721c3bb38c1f5d0",
    "name": "manager",
    "salary": 5000,
    "employeeId": "5d713995b721c3bb38c1f5d0"
  },
  {
    "_id": "3d713995b721c3bb38c1f5d1",
    "name": "accounter",
    "salary": 6000,
    "employeeId": "5d713995b721c3bb38c1f5d1"
  },
  {
    "_id": "3d713995b721c3bb38c1f5d2",
    "name": "other",
    "salary": 1000,
    "employeeId": "5d713995b721c3bb38c1f5d2"
  }
]
